number;iterative;it. time;recursive;rec.time
1;1;0.000;1;0.000
2;1;0.000;1;0.000
3;2;0.000;2;0.000
4;3;0.000;3;0.000
5;5;0.000;5;0.000
6;8;0.000;8;0.000
7;13;0.000;13;0.000
8;21;0.000;21;0.000
9;34;0.000;34;0.000
10;55;0.000;55;0.000
11;89;0.000;89;0.000
12;144;0.000;144;0.000
13;233;0.000;233;0.000
14;377;0.000;377;0.000
15;610;0.000;610;0.000
16;987;0.000;987;0.000
17;1597;0.000;1597;0.000
18;2584;0.000;2584;0.000
19;4181;0.000;4181;0.000
20;6765;0.000;6765;0.000
21;10946;0.000;10946;0.000
22;17711;0.000;17711;0.000
23;28657;0.000;28657;0.000
24;46368;0.000;46368;0.000
25;75025;0.000;75025;0.000
26;121393;0.000;121393;0.000
27;196418;0.000;196418;0.000
28;317811;0.000;317811;0.000
29;514229;0.000;514229;0.000
30;832040;0.000;832040;0.000
31;1346269;0.000;1346269;0.000
32;2178309;0.000;2178309;0.000
33;3524578;0.000;3524578;0.000
34;5702887;0.000;5702887;0.000
35;9227465;0.000;9227465;0.000
36;14930352;0.000;14930352;0.000
37;24157817;0.000;24157817;0.000
38;39088169;0.000;39088169;0.000
39;63245986;0.000;63245986;0.000
40;102334155;0.000;102334155;0.000
41;165580141;0.000;165580141;0.000
42;267914296;0.000;267914296;0.000
43;433494437;0.000;433494437;0.000
44;701408733;0.000;701408733;0.000
45;1134903170;0.000;1134903170;0.000
46;1836311903;0.000;1836311903;0.000
47;2971215073;0.000;2971215073;0.000
48;4807526976;0.000;4807526976;0.000
49;7778742049;0.000;7778742049;0.000
50;12586269025;0.000;12586269025;0.000
51;20365011074;0.000;20365011074;0.000
52;32951280099;0.000;32951280099;0.000
53;53316291173;0.000;53316291173;0.000
54;86267571272;0.000;86267571272;0.000
55;139583862445;0.000;139583862445;0.000
56;225851433717;0.000;225851433717;0.000
57;365435296162;0.000;365435296162;0.000
58;591286729879;0.000;591286729879;0.000
59;956722026041;0.000;956722026041;0.000
60;1548008755920;0.000;1548008755920;0.000
61;2504730781961;0.000;2504730781961;0.000
62;4052739537881;0.000;4052739537881;0.000
63;6557470319842;0.000;6557470319842;0.000
64;10610209857723;0.000;10610209857723;0.000
65;17167680177565;0.000;17167680177565;0.000
66;27777890035288;0.000;27777890035288;0.000
67;44945570212853;0.000;44945570212853;0.000
68;72723460248141;0.000;72723460248141;0.000
69;117669030460994;0.000;117669030460994;0.000
70;190392490709135;0.000;190392490709135;0.000
71;308061521170129;0.000;308061521170129;0.000
72;498454011879264;0.000;498454011879264;0.000
73;806515533049393;0.000;806515533049393;0.000
74;1304969544928657;0.000;1304969544928657;0.000
75;2111485077978050;0.000;2111485077978050;0.000
76;3416454622906707;0.000;3416454622906707;0.000
77;5527939700884757;0.000;5527939700884757;0.000
78;8944394323791464;0.000;8944394323791464;0.000
79;14472334024676221;0.000;14472334024676221;0.000
80;23416728348467685;0.000;23416728348467685;0.000
81;37889062373143906;0.000;37889062373143906;0.000
82;61305790721611591;0.000;61305790721611591;0.000
83;99194853094755497;0.000;99194853094755497;0.000
84;160500643816367088;0.000;160500643816367088;0.000
85;259695496911122585;0.000;259695496911122585;0.000
86;420196140727489673;0.000;420196140727489673;0.000
87;679891637638612258;0.000;679891637638612258;0.000
88;1100087778366101931;0.000;1100087778366101931;0.000
89;1779979416004714189;0.000;1779979416004714189;0.000
90;2880067194370816120;0.000;2880067194370816120;0.000
91;4660046610375530309;0.000;4660046610375530309;0.000
92;7540113804746346429;0.000;7540113804746346429;0.000
